{
  "project_info": {
    "project_number": "831795616779",
    "firebase_url": "https://blockchain-sparrows.firebaseio.com",
    "project_id": "blockchain-sparrows",
    "storage_bucket": "blockchain-sparrows.appspot.com"
  },
  "client": [
    {
      "client_info": {
        "mobilesdk_app_id": "1:831795616779:android:59e877be7139ad7674bb0e",
        "android_client_info": {
          "package_name": "com.sparrows.blockchainsparrows"
        }
      },
      "oauth_client": [
        {
          "client_id": "831795616779-uhu2jpfbhcigo35l4p31k1iuk96temk3.apps.googleusercontent.com",
          "client_type": 1,
          "android_info": {
            "package_name": "com.sparrows.blockchainsparrows",
            "certificate_hash": "9b3d706fbf26e4ec4a00f4c5c8a715d42a095710"
          }
        },
        {
          "client_id": "831795616779-elapf4fbis7nk1s5kt8l7spdkbs7kbj0.apps.googleusercontent.com",
          "client_type": 3
        }
      ],
      "api_key": [
        {
          "current_key": "AIzaSyAtRx9AQpTBZDYzsXDYCVncP5QeXAKwybA"
        }
      ],
      "services": {
        "appinvite_service": {
          "other_platform_oauth_client": [
            {
              "client_id": "831795616779-elapf4fbis7nk1s5kt8l7spdkbs7kbj0.apps.googleusercontent.com",
              "client_type": 3
            }
          ]
        }
      }
    }
  ],
  "configuration_version": "1"
}